codigo|nombre|abrevi|consti|descas|descat|puesto|domici|postal|locali|comarc|telefo|urlweb|emilio|connom|contel|conmai|colect|secto1|secto2|imagen|nifent|||
1|Sistemes Avançats d&#39Energia Solar Tèrmica, SCCL|Aiguasol|1999|Sistemas avanzados de energía solar tèrmica.|Sistemes avançats d´energia solar tèrmica.|16|C/ Roger de Llúria, 29 3r 2a|8009|Barcelona|Barcelonès|933424755|http://www.aiguasol.coop|jaume.salom@aiguasol.coop|Jaume Salom|933424755|jaume.salom@aiguasol.coop|1|6||xs0001.jpg|F62787692|Err:502|| 39348942T
2|Cooperativa Integral Catalana, SCCL|Cooperativa Integral|2010|Información transformadora y movimientos en red.|Informació transformadora i moviments en xarxa.|20|C/ Sardenya, 263|8013|Barcelona|Barcelonès|935535611|http://www.cooperativa.cat/|info@cooperativaintegral.cat|Enric Durán|935535611|info@cooperativaintegral.cat|1|11||xs0002.jpg|F65343287||| 40277539P
3|l'Apòstrof, SCCL|Apòstrof|1997|Edición de libros. Comunicación. Diseño gráfico.|Edició de llibres. Comunicació. Disseny gràfic.|9|C/ Casp, 43 baixos 1a|8010|Barcelona|Barcelonès|933429366|http://www.apostrof.coop|apostrof@apostrof.coop|Carme Giménez|933429366|carme@apostrof.coop|1|7|4|xs0003.jpg|F61292181||| 46996439X
4|Arç Correduria d´Assegurances, SCCL|Arç Assegurances|1983|Gestión cooperativa de seguros.|Gestió cooperativa d´assegurances.|11|C/ Casp, 43 entl. 1a|8010|Barcelona|Barcelonès|934234602|http://www.arccoop.coop|arccoop@arccoop.coop|Jordi Via Llop|934234602|jvia@arccoop.coop|1|4||xs0004.jpg|F58302001||| B55218432
5|Barnaciber, SCCL|Barnaciber|2001|Alojamiento y creación de websites. Comercio electrónico.|Hostalatge i creació de llocs webs. Comerç electrònic.|3|C/ Pegàs, 6-8 escala DRETA 4rt 1a|8027|Barcelona|Barcelonès|933499074|http://www.barnaciber.com/|mail@barnaciber.com|Isidro Avila Jiménez|933499074|isidro@barnaciber.com|1|4|7|xs0005.jpg|F62466958||| B61119681
6|Biciclot, SCCL|Biciclot|1994|Reparación y alquiler de bicicletas. Monitores tiempo libre.|Reparació i lloguer de bicicletes. Monitors temps lliure.|13|C/ La Verneda, 16-22|8018|Barcelona|Barcelonès|933077475|http://www.biciclot.net|biciclot@biciclot.net|sense dades|933077475|biciclot@biciclot.net|1|5|4|xs0006.jpg|F60628187||| B62569108
7|Col·lectiu Ronda, SCCL|Col·lectiu Ronda|1972|Asesoría jurídica laboral económica social.|Assessoria jurídica laboral econòmica social.|115|C/ Trafalgar, 50|8010|Barcelona|Barcelonès|932682199|http://www.cronda.coop|tgasch@cronda.coop|Joan Lluís Jornet|932682199|jali2@telefonica.net|1|5||xs0007.jpg|F08638322||| B64482151
10|El Foli Verd, SCCL|Foli Verd|1987|Impresión de productos gráficos.|Impressió de productes gràfics.|5|C/ Llibertat, 37 baixos|8012|Barcelona|Barcelonès|934571531|http://www.foliverd.net/|foli@foliverd.net|Cristina|934571531|foli@foliverd.net|1|4|2|xs0010.jpg|F58387689||| B65659963
11|Estratègies Transformació Comunitària Sostenible|ETCS|2004|Proyectos de desarrollo local.|Projectes de desenvolupament local.|13|C/ Casp, 43 baixos 1a|8010|Barcelona|Barcelonès|933537013|http://www.etcs.coop|info@etcs.coop|Sandra|933537013|serill@etcs.coop|1|4|5|xs0011.jpg|F63684617||| B66262015
13|Gestió i Disseny, SCCL|GEDI|1990|Servicios de atención a la persona.|Serveis d´atenció a la persona.|210|C/ Llull, 27-39 2n 9a|8010|Barcelona|Barcelonès|933009694|http://www.consop.org|promocio@gedi.org|Xavier Gallofré|933009694|promocio@gedi.org|1|3|4|xs0013.jpg|F59128041||| B66277567
15|Koinós, SCCL|Koinós|2000|Servicios de traducción simultanea.|Serveis de traducció simultània.|6|C/ Pau Claris, 167, 7a|8037|Barcelona|Barcelonès|934873947|http://www.koinosbcn.com|info@koinosbcn.com|Cathy Arnaud|934873947|cathy.arnaud@koinosbcn.com|1|4||xs0015.jpg|F62228838||| B66303694
17|L'Olivera, SCCL|L'Olivera|1976|Promoción social. Actividades agrícolas y agroalimentarias.|Promoció social. Activitats agrícoles i agroalimentàries.|85|C/ La Plana, s/n|25268|Vallbona de les Monges|Urgell|973330276|http://www.olivera.org|olivera@olivera.org|Carles de Ahumeda|973330276|olivera@olivera.org|1|1|5|xs0017.jpg|F25014176||| B66560723
18|Mol-Matric, SCCL|Mol-Matric|1982|Fabricación de moldes y matrices para automoción.|Fabricació de motlles i matrius per automoció.|50|Can Magí, 14-16 - Polígon Ind. Santiga|8210|Barberà del Vallés|Vallès Occidental|937192710|http://www.molmatric.coop|molmatric@molmatric.coop|sense dades|||1|2||xs0018.jpg|F08732588||| F08638322
20|Teixidors, SCCL|Teixidors|1983|Tejidos con telares manuales.|Teixits amb tellers manuals.|40|C/ Mas Adei, 65|8221|Terrassa|Vallès Occidental|937831199|http://www.teixidors.com|info@teixidors.com|Juan Ruiz||juanruiz@teixidors.com|1|5||xs0020.jpg|F08880924||| F08732588
21|Missatgers Trèvol, SCCL|Trèvol|1984|Mensajería. Transporte mercancias por carretera. Limpieza.|Missatgeria. Transport mercaderies per carretera. Neteja.|36|C/ Antonio Ricardos, 14, baixos|8027|Barcelona|Barcelonès|934988070|http://www.trevol.com|comercial@trevol.com|Eugeni Ibañez|934988070|infres@trevol.com|1|4||xs0021.jpg|F58044967||| F08880924
22|coop57, SCCL|coop57|1995|Servicios financieros éticos y solidarios.|Serveis financers ètics i solidaris.|5|C/ Premià, 15 baixos|8014|Barcelona|Barcelonès|932682949|http://www.coop57.coop|coop57@coop57.coop|Ramón Pascual|932682949|coop57@coop57.coop|3|8||xs0022.jpg|F58396524||| F25014176
23|Gestió Veïnal de Barri, SCCL|Gestió Veïnal|2000|Gestión vecinal de barrio.|Gestió veïnal de barri.|3|C/ Doctor Aiguader, 18, baixos|8003|Barcelona|Barcelonès|932690145|http://www.confavc.org|isabel.gvb@confavc.org|Juan A. Ruiz|932688980||3|5|4|xs0023.jpg|F62197504||| F58398496
24|Arç Intercooperació Econòmica, SCCL|Arç Intercooperació|1998|Compra colectiva de servicios. Promoción del mercado social.|Compra col·lectiva de serveis. Promoció del mercat social.|3|C/ Casp, 43 entl. 1a|8010|Barcelona|Barcelonès|934250688|http://www.arccoop.cat|aie@arccoop.cat|Jordi Via Llop|934234602|jvia@arccoop.coop|2|5|8|xs0024.jpg|F61709853||| F61567657
25|Rocaguinarda Cooperativa Cultural|Rocaguinarda|1978|Libreria.|Llibreria.|2|C/ Xiprer, 13|8041|Barcelona|Barcelonès|934553017|http://www.rocaguinarda.org|coop@rocaguinarda.org|Josep Busquets|934553017|coop@rocaguinarda.org|2|3|9|xs0025.jpg|F08525610||| F62197504
29|Els Tres Turons|Tres Turons|2003|Inserción social y laboral de enfermos mentales.|Inserció social i laboral de malalts mentals.|42|C/ Fasthenrat, 208-212, baixos|8032|Barcelona|Barcelonès|934293210|http://www.els3turons.org|fundacio@els3turons.org|Jordi Foix|934293210|jordi.foix@els3turons.org|7|9||xs0029.jpg|G63027411||| F64077274
32|Associació Andròmines|Andròmines|1993|Integración socio-laboral de personas.|Integració sòcio-laboral de persones.|38|Carretera Vella, 37|8110|Montcada i Reixac|Vallès Occidental|932740627|http://www.andromines.net|andromines@andromines.net|sense dades|932740627|andromines@andromines.net|5|3||xs0032.jpg|G60304862||| F65343287
35|Centre de Recerca i Informació en Consum|CRIC|1996|Informar de consumo responsable mediante la revista Opcions.|Informació de consum responsable mitjançant revista Opcions.|7|C/ Casp, 43 entl. 2a|8010|Barcelona|Barcelonès|934127594|http://www.opcions.org|cric@pangea.org|Montse Peiron|934127594|montsep@pangea.org|5|11|7|xs0035.jpg|G62656608||| F65378655
37|Ecoinstitut, SCCL|Ecoinstitut|1999|Asesoramiento e investigación por la sostenibilidad.|Assessorament i recerca per la sostenibilitat.|5|Torre dels Pardals, 69, entl. 4a|8032|Barcelona|Barcelonès|933481386|http://www.ecoinstitut.coop/|ecoinstitut@ecoinstitut.coop|Josep Esquerrà i Roig|933481386|ecoinstitut@ecoinstitut.coop|3|6|4|xs0037.jpg|F65022683||| F65792863
38|Educació per a l´Acció Crítica|EdPAC|2003|Talleres y materiales educativos de acción critica.|Tallers i materials educatius d´acció crítica.|4|C/ Sant Pere més Alt, 31, 2n 3a|8003|Barcelona|Barcelonès|932684820|http://www.edpac.cat|ong@edpac.cat|Manuel Torres|691656468||5|9|10|xs0038.jpg|G63082135||| F65906919
39|Aprise-Promocions|Promocions|1986|Promociones de iniciativas sociales y economicas.|Promocions d´iniciatives socials i económiques.|30|Plaça Vila de Madrid, 5, 1r 1a|8003|Barcelona|Barcelonès|934127675|http://www.promocions.com|info@promocions.com|Daniel Jover||djover@promocions.com|5|5|4|xs0039.jpg|G59335166||| F65964413
41|Mutualitat Sinera|Sinera|1994|Mutualidad de previsión social.|Mutualitat de previsió social.|4|C/ Doctor Aiguader, 18|8003|Barcelona|Barcelonès|932689130|http://www.confavc.org|sinera@confavc.org|sense dades|||5|5||xs0041.jpg|V60636693||| F65964462
43|L´Espai Icària|Icària|1976|Editorial especializada en ciencias sociales y ensayo.|Editorial especialitzada en ciències socials i assaig.|8|C/ Arc de Sant Cristòfol, 11-23|8003|Barcelona|Barcelonès|933011723|http://www.icariaeditorial.com|icaria@icariaeditorial.com|Ana Monjo||amonjo@icariaeditorial.com|8|7||xs0043.jpg|G63050447||| F66133679
45|Aposta, SCCL|Aposta|2004|Escuela de formación contínua del cooperativismo.|Escola de formació contínua del cooperativisme.||C/ Premià, 15|8014|Barcelona|Barcelonès|933188162|http://www.aposta.coop|aposta@aposta.coop|Verònica|933188162|veronica@aposta.coop|4|4|5|xs0045.jpg|F63669568||| F66136656
49|Alternativa 3, SCCL|Alternativa 3|1992|Comercio justo y solidario.|Comerç just i solidari.|12|Ctra de Castellar, 526|8227|Terrassa|Vallès Occidental|937869379|http://www.alternativa3.com|alternativa3@alternativa3.com|Juan Antonio Baile Antunez|937869379|antonio@alternativa3.com|1|3|2|xs0049.jpg|F12329876||| F66222654
50|La Ciutat Invisible, SCCL|Ciutat Invisible|2005|Librería, editorial y comunicación gráfica.|Llibreria, editorial i comunicació gràfica.|5|C/ Riego, 35 baixos|8014|Barcelona|Barcelonès|932989947|http://www.laciutatinvisible.coop|admin@laciutatinvisible.org|Hernan|932989947|admin@laciutatinvisible.org|1|5||xs0050.jpg|F63851430||| F66231440
51|Nova - Centre per a la Innovació Social|Nova - CIS|1999|Promover la innovación social.|Promoure la innovació social.|5|C/ Joncar 19, 4t 1a|8006|Barcelona|Barcelonès|934049085|http://www.nova.cat|info@nova.cat|Martí Olivella|635437485|marti@nova.cat|5|5||xs0051.jpg|G62083357||| F66383985
52|COS Cooperació i Salut, SCCL|COS|2011|Servicios de salud general e integrativa.|Serveis de salut general i integrativa.|11|C/ Mozart, 2|8012|Barcelona|Barcelonès|931650770|http://www.cos.coop|correu@cos.coop|Jordi Vinadé Sais|687965366|jordi@cos.coop|3|5||xs0052.jpg|F65520645||| F66395302
54|SETEM Catalunya|SETEM|1968|Sensibilización para la solidaridad y la cooperación.|Sensibilització per a la solidaritat i la cooperació.|9|C/ Bisbe Laguarda, 4 local 2|8001|Barcelona|Barcelonès|934415335|http://www.setem.cat|catalunya@setem.org|Mònica Vega|934415335|mvega@setem.org|5|10|5|xs0054.jpg|G59523910||| F66423179
56|Claraboia Audiovisual, SCCL|Claraboia|2010|Producción audiovisual.|Producció audiovisual.|3|C/ de l´Escultor Damià Campeny, 22|8301|Mataró|Maresme|931884016|http://www.claraboia.coop|info@claraboia.coop|Blai Lindström Benito|686177802|blai@claraboia.coop|1|7|4|xs0056.jpg|F65284556||| F66462888
58|Consultoria CoopdeMà, SCCL|Coopdemà|2010|Servicios de consultoría en la economía social.|Serveis de consultoria en l´economia social.|3|Rambla Marina, 178 entl. 1a|8907|L´Hospitalet|Barcelonès|932640356|http://www.coopdema.cat|coopdema@coopdema.cat|Josep Pedrosa i Domènech|932640356|coopdema@coopdema.cat|1|4||xs0058.jpg|F65347841||| F66497801
59|Nusos. Activitats científiques i culturals, SCCL|Nusos|2003|Divulgación científica y educación para la sostenibilidad.|Divulgació científica i educació per a la sostenibilitat.|10|C/ Casp, 43 baixos 1a|8010|Barcelona|Barcelonès|934103777|http://www.nusos.net|nusos@nusos.net|Carme Garcia Boqué|644231900|carme.garcia@nusos.net|1|5|6|xs0059.jpg|F63211809||| F66558263
60|Tandem Social, SCCL|Tandem|2011|Consultoría para proyectos y empresas sociales.|Consultoria per a projectes i empreses socials.|6|C/ Trafalgar, 25 2on 2ona|8010|Barcelona|Barcelonès|655034986|http://www.tandemsocial.com|hola@tandemsocial.com|Jaume Oller Rosell|655034986|jaumeoller@tandemsocial.com|1|9|4|xs0060.jpg|F65570400||| F66626177
61|Grup ECOS, SCCL|Grup ECOS|2011|Grupo cooperativo.|Grup cooperatiu.|100|C/ Casp, 43 baixos 1a|8010|Barcelona|Barcelonès|934122961|http://www.grupecos.coop|info@grupecos.coop|Jordi Via Llop|934122961|jvia@grupecos.coop|4|11||xs0061.jpg|F63866222||| F66633967
62|Altermercat, SCCL|Altermercat|2011|Cooperativa de consumo de mercado social.|Cooperativa de consum de mercat social.|0|C/ Àngel Guimerà, 5|8100|Mollet del Vallés|Vallés Oriental|935937727|http://www.altermercat.cat|altermercat@altermercat.cat|Mario Santos|935937727|altermercat@altermercat.cat|2|3|1|xs0062.jpg|F65646283||| F66668385
63|Celobert, SCCL|Celobert|2010|Arquitectura, ingeniería y urbanismo responsables.|Arquitectura, enginyeria i urbanisme responsables.|7|C/ Bailèn, 5 baixos|8010|Barcelona|Barcelonès|935285654|http://www.celobert.coop|info@celobert.coop|Núria|935285654|nuria@celobert.coop|1|2|5|xs0063.jpg|F65387177||| F66674672
65|Gestió Integral, SCCL|Gestió Integral|1987|Asessoría y Consultoría.|Assessoria i Consultoria.|20|Avinguda Diagonal, 442 bis 2a|8037|Barcelona|Barcelonès|932080732|http://www.grupintegral.com.es|cnicola@grupintegral.es|Cristina Nicola|932080732|cnicola@grupintegral.es|1|4|5|xs0065.jpg|F58479569||| F66694100
67|Servei de Prevenció Integral, SCCL|SEPRA|1992|Formació en prevención.|Formació en prevenció.|7|C/ Trinxant, 100 local|8026|Barcelona|Barcelonès|934574145|http://www.sepra.es|jsamos@sepra.es|José Samos|934574145|jsamos@sepra.es|1|4|11|xs0067.jpg|F63097992||| F66860560
68|Hobest, SCCL|Hobest|2010|Consultoría organizativa.|Consultoria organitzativa.|3|C/ Casp, 43 baixos 1a|8010|Barcelona|Barcelonès|636206452|http://www.hobest.cat|evidal@hobest.cat|Ester Vidal Pujol-Xicoy|636206452|evidal@hobest.cat|1|4|9|xs0068.jpg|F65269276||| F66863507
69|Calidoscoop, SCCL|Calidoscoop|2012|Promoción economía social, empreneduría y cooperativismo.|Promoció economia social, emprenedoria i cooperativisme.|3|C/ Casp, 43 baixos 1a|8010|Barcelona|Barcelonès|670537525|http://www.calidoscoop.coop|info@calidoscoop.coop|Pere Ribas|670537525|pere@calidoscoop.coop|1|4||xs0069.jpg|F65923385||| G55624811
70|Cevagraf, SCCL|Cevagraf|1986|Artes Gráficas y Venta de productos ecológicos.|Arts grafiques i Venda de productes ecologics.|45|C/ Praga, 22-24 - Pol. Ind. Cova Solera|8191|Rubí|Vallès Occidental|935860420|http://www.cevagraf.coop|albert.alcoverro@cevagraf.coop|Albert Alcoverro|637405353|albert.alcoverro@cevagraf.coop|1|2|3|xs0070.jpg|F58137001||| G55673206
71|Associació Projecte Fiare Catalunya|Fiare|2007|Servicios financieros.|Serveis financers.|3|C/ Casp, 43 baixos 1a|8010|Barcelona|Barcelonès|933689982|http://www.proyectofiare.com|associacio@projectefiare.cat|Xavi Rubio|933689982|xavierrubioc@gmail.com|5|8||xs0071.jpg|G64595838||| G58327289
72|Observatori DESC|Observatori DESC|1998|Investigación, difusión y soporte campañas.|Investigació, difusió i suport campanyes.|4|C/ Casp, 43 baixos 1a|8010|Barcelona|Barcelonès|933026882|http://www.observatoridesc.org|administracio@observatoridesc.org|Alma Cortès|933026882|administracio@observatoridesc.org|6|10|11|xs0072.jpg|G61829198||| G59335166
73|SostreCívic Cooperativa|SostreCívic|2010|Nuevo modelo de acceso a la vivienda.|Nou model d'accés a l'habitatge.|0|C/ Casp, 43 baixos 1a|8010|Barcelona|Barcelonès|933026882|http://www.sostrecivic.org|info@sostrecivic.org|Raül Robert|627415412|raul@sostrecivic.org|5|2|5|xs0073.jpg|F65347858||| G59546556
75|Diva 2001, SCP|Diva|2001|Reparaciones y reformas.|Reparacions i reformes.|6|C/ Pardo, 59|8016|Barcelona|Barcelonès|933468601|http://www.clubdivahogar.com|divareparaciones@gmail.com|Fidel Lora Lillo|933468601|fdlora@gmail.com|9|2||xs0075.jpg|J62616347||| G60437761
76|Can Cet Centre d'Insercio Socio Laboral|Can Cet|1995|Inserción socio-laboral de personas con discapacidades.|Inserció socio-laboral de persones amb discapacitats.|134|C/ Manuel Fernandez Marquez, 21|8918|Badalona|Barcelonès Nord|934685430|http://www.cancet.org|cancet@cancet.org|Jorge Leon Garcia|934685430|jleon@cancet.org|9|4|5|xs0076.jpg|B60759644||| G61749297
77|Cordada, Associació Excursionista i Ecologista|Cordada|1994|Asociación excursionista.|Associació excursionista.|2|C/ Cuba, 2|8030|Barcelona|Barcelonès|935019801|http://www.cordada.org|secretaria@cordada.org|Josep Escruela|649335922|jescruela@yahoo.es|5|5||xs0077.jpg|G61781035||| G61813200
79|Escola de Dansa Solsona|Dansa Solsona|2012|Centro de enseñanza artistica y deportiva.|Centre d'ensenyaments artístics i esportius.|4|C/ Camp del Molí, 15|25280|Solsona|Solsonès|973483943|http://www.dansasolsona.cat|info@dansasolsona.cat|Martí Prades|658953078|marti@dansasolsona.cat|9|5||xs0079.jpg|39348942T||| G62015789
80|Fent Pais, SCCL|Fent Pais|2012|Promoción del ocio y tiempo libre responsable y de proxmdad.|Promoció del oci i lleure responsable i de proximitat.|5|C/ Urgell, 2n|8241|Manresa|Bages|930131909|http://www.fentpais.cat|rcodina@fentpais.cat|Roger Codina|930131909|rcodina@fentpais.cat|1|11||xs0080.jpg|F65838567||| G62831581
81|Grup associats per al treball social, cultural ...|GATS|2000|Acción social, cultural y ambiental. Economía social.|Acció social, cultural i ambiental. Economia social.|12|C/ Riu Llobregat, 47|8820|Prat de Llobregat|Baix Llobregat|933795637|http://www.gats.cat|oskar@gatsbaix.org|Oscar Rando Rodríguez|607596438|oskar@gatsbaix.org|5|9|6|xs0081.jpg|G62458757||| G63050447
82|Iacta Cooperativa, SCCL|Iacta|2012|Asesoramiento jurídico y Representación judicial.|Assessorament jurídic i Representació judicial.|3|C/ del Centre, 4 baixos|8041|Barcelona|Barcelonès|934509024|http://www.iacta.coop|info@iacta.coop|Beatriz Fernandez Gensana|634900707|bfgensana@gmail.com|1|5||xs0082.jpg|F65747461||| G63425755
83|Innovació i Economia Social en Mediterránia, SCCL|IESMed|2012|Servicios financieros y Acompañamiento de procesos.|Serveis financers i Acompanyament processos.|5|C/ Corsega, 288 3r 2a|8008|Barcelona|Barcelonès|932377118|http://www.iesmed.eu|jordi.mari@iesmed.eu|Jordi Mari|932377118|jordi.mari@iesmed.eu|1|4||xs0083.jpg|F65644189||| G63952915
84|Associació Imagina|Imagina|2012|Comercialización de complementos.|Comercialització de complements.|4|C/ Rossello, 303 2º 2ª|8037|Barcelona|Barcelonès|648456302|http://www.associacioimagina.org|direccio@associacioimagina.org|Manuel Almirall|648456302|direccio@associacioimagina.org|5|3||xs0084.jpg|G65738791||| G64106347
85|Som Energia, SCCL|Som Energia|2010|Servicios energéticos.|Serveis energetics.|54|C/ Pic de Peguera, 15 A2.08|17003|Girona|Gironès|972183386|http://www.somenergia.coop|info@somenergia.coop|Marc Rossello|972183386|marc.rosello@somenergia.coop|2|11||xs0085.jpg|F55091367||| G64564057
86|Xarxa Economia Solidària - Barcelonès Nord|XES - Barcelonès N|2012|Comedor social, Cooperativa consumo yi Sección local coop57.|Menjador social, Cooperativa consum i Secció local coop57.|0|C/ Sant Ramon, 51 local|8921|Santa Coloma de Gramenet|Barcelonès Nord|667382689|http://www.ara-santacoloma.com|conxitalila@hotmail.com|Conxita Ripollès Heras|667382689|conxitalila@hotmail.com|5|5|1|xs0086.jpg|G62831581||| G64595838
87|Distribuïdora de Mercat Social, SCCL|quèviure|2013|Distribuidora de Mercado Social.|Distribuïdora de Mercat Social.|2|C/ Antonio Ricardos, 10 baixos|8027|Barcelona|Barcelonès|934988007|http://www.queviure.coop|info@queviure.coop|Xavi Palos|934988007|xavi@queviure.coop|3|3|1|xs0087.jpg|F65941239||| G64770845
89|Fundació Engrunes|Engrunes|1982|Luchar contra la pobreza y la exclusión social.|Lluitar contra la pobresa i l´exclusió social.|120|C/ Roca Plana 14-16 - PI Coll de Montcada|8110|Montcada i Reixac|Vallès Occidental|935829999|http://www.engrunes.org|fvillarrasa@engrunes.org|Francisco|935829999|fvillarrasa@engrunes.org|7|5|4|xs0089.jpg|G58111535||| G64971229
90|LabCOOP, SCCL|LabCOOP|2013|Servicios de acompañamiento y Asesoria.|Serveis d´acompanyament i Assessoria.|6|C/ Casp, 43 baixos|8010|Barcelona|Barcelonès|934122961|http://labcoop.coop/|labcoop@grupecos.coop|Guernica|934122961|labcoop@grupecos.coop|4|4||xs0090.jpg|F66029059||| G65532418
91|LaCol, SCCL|LaCol|2009|Arquitectura.|Arquitectura.|18|C/ Ciceró, 5 baixos|8014|Barcelona|Barcelonés|931720677|http://www.lacol.org/|info@lacol.org|Arnau|620626743|info@lacol.org|1|4|5|xs0091.jpg|F66248154||| G65628364
92|Fil a l'agulla, SCCL|Fil a l'agulla|2009|Educación y Desarrollo organizacional.|Educació i Desenvolupament organitzacional.|5|C/ Blai, 17 4º 1ª|8004|Barcelona|Barcelonés|654070358|http://www.filalagulla.org/|info@filalagulla.org|Helena|654070358|info@filalagulla.org|1|5|4|xs0092.jpg|F65184350||| G65738791
93|Koitton club, SCCL|Koitton|2012|Bar musical y espacio de difusión cultural.|Bar musical i espai de difusió cultural.|4|C/ Rossend Arús, 9|8014|Barcelona|Barcelonés|637872362|http://koittonclub.blogspot.com.es/|koittonclub@gmail.com|Núria Alcober|637872362|concertskoitton@gmail.com|1|3||xs0093.jpg|F65792863||| G65978348
94|TAT - Espais per a la cultura, SCCL|TAT|1998|Concepto, diseño, producción y montaje de exposiciones.|Concepte, disseny, producció i muntatge d´exposicions.|3|C/ Béjar, 43 baixos|8014|Barcelona|Barcelonès|934087791|http://www.tatespais.com/|info@tatespais.com|Toni Giró Fontanals|630989944|tonigiro@tatespais.com|3|9|7|xs0094.jpg|F61567657||| G66146218
95|Arriant, SLU|Arriant|2007|Proyectos y Formación para el ocio.|Projectes i Formació pel lleure.|3|Mas Can Gurt, s/n|17176|Joanetes|La Garrotxa|972691123|http://www.arriant.org/|info@arriant.org|Albert Serra i Bosch|680237745|info@arriant.org|9|5||xs0095.jpg|B55218432||| G66213406
96|Associació Noves Propostes|Noves Propostes|2011|Apoyo a las finanzas éticas y el emprendimiento social.|Suport a les finances ètiques i a l'emprenedoria social.|1|Passeig del Bosc, 41|8197|Valldoreix|Vallès Occidental|609010798|http://www.novespropostes.wordpress.com/|novespropostes@gmail.com|Narcís Sanchez Pelach|609010798|novespropostes@gmail.com|5|4|5|xs0096.jpg|G65698375||| G66310343
97|Azimut 360, SCCL|Azimut|2009|Energías renovables.|Energies renovables.|5|C/ Santa Àgata, 7 local 2|8012|Barcelona|Barcelonès|932171963|http://www.azimut360.coop/|info@azimut360.coop|Mireia Gil|615403517|mireia.gil@azimut360.coop|1|6|10|xs0097.jpg|F65202624||| G66328709
98|MASPUBLICO Sociedad Cooperativa|MASPúblico|2012|Edición publicación La Marea.|Edició publicació La Marea.|81|C/ Carretas, 14 4º|28012|Madrid|Madrid|670462217|http://www.maspublico.com|jordi.ortiz.gil@gmail.com|Jordi Ortiz|670462217|jordi.ortiz.gil@gmail.com|1|7||xs0098.jpg|F86598521||| G66431131
99|Concep-t, SCCL|Concep-t|2013|Diseño, producción y comercialización eventos a medida.|Disseny, producció i comercialització esdeveniments a mida.|5|C/ Serrallers, 10|8551|Tona|Osona|615566593|http://www.concep-t.com|info@concep-t.com|Albert Serra Ortiz|615566593|albert@concep-t.com|3|4||xs0099.jpg|F65964462||| G66565755
100|UNI.CO, SCCL|UNI.CO|2011|Soluciones integrales (sectores energéticos e industriales).|Solucions integrals (sectors energètics i industrials).|19|C/ Oblit, 62|8041|Barcelona|Barcelonès|645190743|http://www.unico.cat|blai.garcia@unico.cat|Blai Garcia i Serra|645190743|blai.garcia@unico.cat|4|4|6|xs0100.jpg|F65592339||| G66823659
101|Empresa d'Inserció Verdallar, SLU|Verdallar|2012|Producción, distribución y venta de productos ecológicos.|Producció, distribució i venda de productes ecològics.|3|C Sots Tinnent Navarro, 18 baixos|8002|Barcelona|Barcelonès|932688015|http://www.verdallar.es|contacta@verdallar.es|Edgar Gil Martínez|638237718|edgar@verdallar.es|7|3|1|xs0101.jpg|B65796930||| G86377512
102|Formatge ecològic de Puigcerver|Puigcerver|2001|Elaboración de quesos.|Elaboració de formatges.|3|C/ Unic, s/n|25514|Puigcerver|Pallars Jussà|973252151|http://www.ecologicdepuigcerver.com/|formatges@ecologicdepuigcerver.com|Pili|973252151|pili@ecologicdepuigcerver.com|9|1|3|xs0102.jpg|J25635541||| G96284971
103|Els Caus -Turisme Sostenible i Cooperatiu, SCCL|Els Caus|2013|Turismo sostenible y Gestión de un albergue.|Turisme sostenible i Gestió d'un alberg.|3|C/ Sol, 1|8278|Mura|Bages|938316331|http://www.elscausdemura.coop/|elscausdemura@gmail.com|Ferran|697268468|elscausdemura@gmail.com|1|9|5|xs0103.jpg|F65674046||| J25635541
104|L'Economat Social, SCCL|Economat Social|2013|Favorecer el consumo de productos ecológicos.|Afavorir el consum de productes ecològics.|3|C/ Jocs Florals, 157 baixos|8014|Barcelona|Barcelonès|678905871|http://leconomat.cat/|economatcoop@gmail.com|Diana|678905871|economatcoop@gmail.com|1|5|3|xs0104.jpg|F65964413||| J62616347
105|Fundació Inform|Inform|1996|Servicios de formación para la inserción laboral.|Serveis de formació per la inserció laboral.|18|C/ del Pi, 24|8810|Sant Pere de Ribes|Garraf|938964700|http://www.inform.es/|s.lozano@inform.es|Sònia Lozano|938964700|s.lozano@inform.es|7|4|5|xs0105.jpg|G61468583||| J66045907
107|El Bidó de Nou Barris|Bidó 9barris|1988|Gestión Ateneu Popular 9barris. Centro cultural público.|Gestió Ateneu Popular 9barris. Centre cultural públic.|5|C/ Port-lligat, 11-15|8042|Barcelona|Barcelonès|933509475|http://www.ateneu9b.net/|coordinacio@ateneu9b.net|Toni|933509475|coordinacio@ateneu9b.net|5|9|5|xs0107.jpg|G58327289||| Q0818002H
109|Cooperativa La Fàbric@, SCCL|La Fàbric@|2013|Desarrollo comunitario y Desarrollo local y social.|Desenvolupament comunitari i Desenvolupament local i social.|11|Pg Salvat Papasseit, 1 1ª planta|8003|Barcelona|Barcelonès|932680477|http://www.descom.cat/|jmnavarro@descom.coop|Josep Mª Navarro Cantero|670670865|jmnavarro2503@gmail.com|1|9||xs0109.jpg|F66077611||| V60636693
110|Cafè del Centre, SCCL|Cafè del Centre|2012|Espacio gastronómico del Ateneo El Centre.|Espai gastronòmic de l'Ateneu El Centre.|8|C/ Corredossos de baix, 1|8140|Caldes de Montbui|Vallès Oriental|680454983||cafedelcentrecooperativa@gmail.com|Arnau Galí i Montiel|680454983|cafedelcentrecooperativa@gmail.com|1|11||xs0110.jpg|F65858193|||
111|Amics d'Ak Benn|Ak Benn|2005|Actividades educativas dirigidas a los jóvenes de Dakar.|Activitats educatives dirigides als joves de Dakar.|0|C/ Pi i Margall, 13 1er 2a|8024|Barcelona|Barcelonès|935550929|http://www.akbenn.webs.com|amics-ak-benn@ak-benn.eu|Jordi Riera Bas|685463411|jrb-teia@disset.org|5|10||xs0111.jpg|G63989313|||
112|n'klôwô, SCCL|n'klôwô|2014|Ropa de cama hecha con justicia a Costa de Ivori y Burkina.|Roba de llit feta amb justícia a Costa d'Ivori i Burkina|3|C/ Casp, 43 baixos|8010|Barcelona|Barcelonès|647418682|http://www.nklowo.com|info@nklowo.com|Núria|647418682|nuria@nklowo.com|1|3||xs0112.jpg|F66222654|||
113|Fundación Privada Trinijove|Trinijove|1985|Actuación en la formación y la inserción sociolaboral.|Actuació en la formació i la inserció sociolaboral.|20|C/ Turó de la Trinitat, 17|8033|Barcelona|Barcelonès|933459221|http://www.trinijove.org|fundacio@trinijove.org|Ana Montoro|933459221|amontoro@trinijove.org|7|5|4|xs0113.jpg|G59546556|||
114|by my eco|by my eco|2013|Sostenibilidad urbana.|Sostenibilitat urbana.|2|C/ La Costa, 67|8023|Barcelona|Barcelonès|678031069|http://www.bymyeco.com|info@bymyeco.com|Núria Nubiola|678031069|nuria@bymyeco.com|5|6|9|xs0114.jpg|G65983249|||
115|+ Més Eficiència Social, SCCL|+ MES|2013|Servicios de comedores escolares y educación del ocio.|Serveis de menjadors escolars i educació del lleure.|6|C/ Prim, 76 1er 2a|8222|Terrassa|Vallès Occidental|937864927|http://www.mesmes.cat|benito.iglesias@mesmes.cat|Benito Iglesias|937864927|biglesias@mesmes.cat|1|4|9|xs0115.jpg|F66040700|||
116|Associació per a Joves Teb|El Teb|1992|Proyectos socioeducativos e Innovación social.|Projectes socioeducatius i Innovació social.|16|C/ dels Salvador, 6 baixos|8001|Barcelona|Barcelonès|934425867|http://www.elteb.org|info@elteb.org|Anna Sánchez|934425867|anna.sanchez@elteb.org|5|9|7|xs0116.jpg|G60939956|||
117|MSagarra Auditoría, SLP|MSagarra|2014|Auditorías Cuentas y Subvenciones - ROAC 12236.|Auditories Comptes i Subvencions - ROAC 12236.|1|C/ Provença, 271 pral 2a|8008|Barcelona|Barcelonès|630053580|http://www.msagarra.com|msagarra@msagarra.com|Montserrat Sagarra Fitó|630053580|msagarra@msagarra.com|9|4||xs0117.jpg|B66262015|||
118|Tinta Sonora, SCP|Tinta Sonora|2013|Tinta Sonora|Tinta Sonora|2|C/ Ramón Turró, 6|8100|Mollet del Vallés|Vallés Oriental|655802158|http://www.tintasonora.com|tintasonoracj@gmail.com|Gisela|655802158|tintasonoracj@gmail.com|8|4||xs0118.jpg|J66045907|||
119|Tarpuna, SCCL|Tarpuna|2012|Innovación social.|Innovació social.|9|C/ Milà i Fontanals, 82 1r 1a|8012|Barcelona|Barcelonès|972877424|http://www.tarpunacoop.org|info@tarpunacoop.org|Josep M. Vallès Casanova|610369628|josepmaria@tarpunacoop.org|1|9|1|xs0119.jpg|F65735714|||
120|Fundació iWith.org|iWith|2001|Servicios de Internet para ONGs y empresas solidarias.|Serveis d'Internet per ONGs i empreses solidàries.|4|C/ Cucurulla, 9 2n 2a A|8002|Barcelona|Barcelonès|933804975|http://www.iwith.org|info@iwith.org|Ramón Bartomeus|933804975|ramon@iwith.org|7|7|4|xs0120.jpg|N0391353J|||
122|Fundació Casa Dalmases|Casa Dalmases|2012|Inserción laboral vía proyecto elaboración cerveza artesana.|Inserció laboral via projecte d'elaboració cervesa artes|2|C/ Major, 87-89|25200|Cervera|La Segarra|639979212|http://www.casadalmases.org|fundacio@casadalmases.org|Xavier Casanovas Combalia|676360601|xavi@casadalmases.org|7|1|9|xs0122.jpg|G25754441|||
123|Ateneu La Base / Barrinar Cap a la Sostenibilitat|La Base|2007|Cooperativismo y Sostenibilidad.|Cooperativisme i Sostenibilitat.|3|C/ Hortes, 10|8004|Barcelona|Barcelonès|638537770|http://www.labase.info|acoopsec@gmail.com|Xavier Latorre Tapis|627811897|xlatorre@ub.edu|5|5|9|xs0123.jpg|G64106347|||
124|Erapi - Laboratori Cooperatiu de Socioantropologia|Erapi|2013|Formación, Investigación, Intervención y Divulgación.|Formació, Recerca, Intervenció i Divulgació.|0|C/ Boters, 4 1a|8002|Barcelona|Barcelonès|636822854|http://www.erapi.net|grupo.erapi@gmail.com|Enrique Santamaría Lorenzo|636822854|ensalo@telefonica.net|5|9||xs0124.jpg|G66213406|||
125|Jam Luda, SL|Jam Hostel|2013|Albergue que promociona un turismo sostenible.|Alberg que promociona un turisme sostenible.|3|C/ Montmany, 30-40 baixos|8012|Barcelona|Barcelonès|933155338|http://www.jamhostelbarcelona.com/ca/|ldemajo@jamhostelbarcelona.com|Lucia|620868198|ldemajo@jamhostelbarcelona.com|9|5||xs0125.jpg|B66127366|||
126|Nexes Interculturals de Joves per Europa|Nexes|1999|Gestión de proyectos en el ámbito de la Juventud.|Gestió de projectes en l´àmbit de la Joventut.|8|C/ Josep Anselm Clavé, 6 1r1a|8002|Barcelona|Barcelonès|934427167|http://www.nexescat.org/|info@nexescat.org|Davide Tonon|934427167|davidetonon@nexescat.org|5|9||xs0126.jpg|G62235676|||
127|Acció i Participació Social Sostenibles|APASSOS|2005|Cooperación, EPD y Economía Solidaria.|Cooperació, EPD i Economia Solidària.|0|C/ Renaixença, 50-52 3r 2a|8041|Barcelona|Barcelonès|619284572||jordiribas70@gmail.com|Jordi Ribas Sebastian|619284572|jordiribas70@gmail.com|5|10||xs0127.jpg|G63425755|||
128|Raons públiques, SCCL|Raons|2012|Participación ciudadana en procesos de transformación urbana|Participació ciutadana en processos de transformació urbana.|5|C/ de la Concòrdia, 30|8004|Barcelona|Barcelonès|931814025|http://www.raonspubliques.org/|info@raonspubliques.org|Javier Fraga|931814025|info@raonspubliques.org|1|9||xs0128.jpg|F66462888|||
129|Espai d'Anàlisi Social, SL|EDAS|2000|Consultoria social.|Consultoria social.|4|Rambla Guipúscoa, 77 baixos 1a|8020|Barcelona|Barcelonès|932781982|http://www.edas.cat/|edas@edas.cat|Joana Conill|699233941|joana.conill@edas.cat|9|4|5|xs0129.jpg|B62569108|||
130|Forn Integral Jorba, SL|Jorba|2003|Panadería. Elaboración y punto de venta.|Forn de pa. Elaboració i punt de venda.|11|C/ Mossèn Jacint Verdaguer, 46|8241|Manresa|Bages|938731350|http://www.fornjorba.com/|queralt.jorba@gmail.com|Queralt Jorba Bayona|649811692|queralt.jorba@gmail.com|9|5||xs0130.jpg|B62721600|||
131|Fundació Apip-Acam|Apip-Acam|2011|Fundación de iniciativa social.|Fundació d'iniciativa social.|483|C/ Paloma, 21-23|8001|Barcelona|Barcelonès|933171614|http://www.fundacioapipacam.org/|fundacioapipacam@fundacioapipacam.org|Anna Fuertes|933171614|fundacioapipacam@fundacioapipacam.org|7|5||xs0131.jpg|G65529661|||
132|Share Events|Share Events|2014|Organización de eventos con proveedores de economía social.|Organització d'esdeveniments amb proveïdors economia soc|1|C/ Domènech, 7-9 2n 2a|8012|Barcelona|Barcelonès|676362885|http://www.sharevents.cat/|compartim@sharevents.cat|Román López Gómez|676362885|romanlopez@sharevents.cat|8|4|7|xs0132.jpg|B66303694|||
133|Kop de mà - Bar, SCCL|Kop de mà|2013|Hostelería mixta.|Hosteleria mixta.|4|C/ Riego, 4 baixos 2|8014|Barcelona|Barcelonès|932966518||kopdemabar@gmail.com|Ziargi Etxarte Moreno|630569871|kopdemabar@gmail.com|1|3||xs0133.jpg|F66136656|||
134|EI l'Eina, SCCL|L'Eina|2008|Inserción laboral mediante diversas actividades.|Inserció laboral mitjançant diverses activitats.|96|C/ Pamplona, 21|8227|Terrassa|Vallès Occidental|937364722|http://www.einacooperativa.coop/|info@einacooperativa.coop|Ricardo J. Ramírez Llorente|937364722|info@einacooperativa.coop|1|9|2|xs0134.jpg|F64422207|||
135|Fundació Privada Voramar|Voramar|1966|Escuela de infantil, primaria y secundaria.|Escola d'infantil, primària i secundària.|81|C/ Ramon Turró, 130-138|8005|Barcelona|Barcelonès|932251324|http://www.voramar.cat/|info@voramar.cat|Teresa Bigordà Amar|932251324|gerencia@voramar.cat|7|9||xs0135.jpg|G60415593|||
136|Crític, SCCL|Crític|2014|Periodismo.|Periodisme.|3|C/ Casp, 43 baixos|8010|Barcelona|Barcelonès|649638041|http://www.elcritic.cat/|jordimaridelatorre@gmail.com|Jordi Marí de la Torre|649638041|jordimaridelatorre@gmail.com|1|7||xs0136.jpg|F66334806|||
137|Actua, SCCL|Actua|2006|Atención y educación a las personas en situación de riesgo.|Atenció i educació a las persones en situacio de risc.|110|C/ del Comerç, 9-10 local 2|8720|Vilafranca del Penedès|Alt Penedès|932247188|http://www.actuasccl.coop/|info@actuasccl.coop|Miquel Angel Carreto|687775267|areaempresarial@actuasccl.coop|1|9|5|xs0137.jpg|F61826053|||
138|Eco·Reciclat, SL|Eco·Reciclat|1993|Importador y distribuidor de productos ecológicos.|Importador i distribuidor de productes ecològics.|3|C/ María Victoria, 20 baixos|8014|Barcelona|Barcelonès|932966224|http://www.ecoreciclat.info/|ecoreciclat@gmail.com|Miquel Guerrero Sánchez|615658006|ecoreciclat@gmail.com|9|4|3|xs0138.jpg|B60205879|||
139|Associació per la Difusió Sense Limits|Directa|2005|Medio de comunicación.|Mitjà de comunicació.|1|C/ Riego, 37 baixos esquerra|8014|Barcelona|Barcelonès|935270982|http://www.directa.cat/|directa@directa.cat|Ferran Domènech|661493117|publicitat@directa.cat|5|7||xs0139.jpg|G63952915|||
140|La Sargantana dalt de la Vila, SCCL|La Sargantana|1996|Hostelería.|Hostaleria.|6|C/ de Sant Sebastià, 2|8911|Badalona|Barcelonès|934642216|http://www.lasargantana.org/|lasargantanabadalonina@gmail.com|Ignasi Niubó Martí|934642216|nasiniubo@gmail.com|1|11||xs0140.jpg|F61165437|||
141|Fundación Fuentes Abiertas|Goteo|2012|Micromecenazgo proyectos cívicos, colaborativos y abiertos.|Micromecenatge de projectes cívics, col.laboratius i oberts.|3|C/ Forn de l'Olivera, 22 baixos dreta|7012|Palma de Mallorca|Illes Balears|871571557|https://goteo.org/|info@goteo.org|Mercè Moreno Tarrés|646653505|merce@goteo.org|7|8|9|xs0141.jpg|G57728172|||
142|FemFeina 2014, SL|FemFeina|2014|Servicio contacto entre personas para todo tipo servicios.|Servei de contacte entre persones per tot tipus de serveis.|2|Ctra Barcelona, 662|8202|Sabadell|Vallès Occidental|639937895|http://www.femfeina.cat|info@femfeina.com|Montse Izquierdo|639937895|info@femfeina.com|9|5||xs0142.jpg|B66277567|||
143|Wopala|Wopala|2014|Diseño para emprendimiento social e iniciativas éticas.|Disseny per emprenedoria social i iniciatives ètiques.|2|C/ Comtessa de Sobradiel, 10 2n 2a|8002|Barcelona|Barcelonès|686413983|http://www.wopala.org|hola@wopala.org|Mariona López|686413983|mariona@wopala.org|9|4|7|xs0143.jpg|J66378654|||
144|Cooperativa Eduxarxa, SCCL|Eduxarxa|2015|Contenidos didácticos y experiencias educativas.|Continguts didàctics i experiències educatives.|3|C/ Astúries, 34 4t B|8012|Barcelona|Barcelonès|699747307|http://www.eduxarxa.coop|hola@eduxarxa.coop|Montse Boher Genís|699747307|montse@eduxarxa.coop|1|9||xs0144.jpg|F66423179|||
145|Centro Estudios Rurales Agricultura Internacional|CERAI|1994|ONG de Desarrollo Rural.|ONG de Desenvolupament Rural.|25|Camí del Port, sn|46470|Catarroja|Horta Sud (Valencia)|963521878|http://www.cerai.org|info@cerai.org|Gabriel Abascal Vicente|933081459|gabascalv@gmail.com|5|10|1|xs0145.jpg|G96284971|||
146|Finançament Ètic i Solidari|FETS|1999|Promoción de las Finanzas Éticas.|Promoció de les Finances Ètiques.|2|C/ Casp, 43|8010|Barcelona|Barcelonès|933688481|http://www.fets.org|fets@fets.org|Maite Codina|933688481|fets@fets.org|6|10||xs0146.jpg|G62069596|||
147|Associació Oikocredit Catalunya|Oikocredit|2000|Finanzas Eticas para el Desarrollo Sostenible del Sur.|Finances Ètiques per al Desenvolupament Sostenible del Sud.|1|C/ Bisbe Laguarda, 4|8001|Barcelona|Barcelonès|934416306|http://www.oikocredit.cat|catalunya@oikocredit.org|David Díaz de Quijano i Barbero|665490978|catalunya@oikocredit.org|5|8|10|xs0147.jpg|G62302476|||
148|Fundació Roca i Galès|Roca i Galès|1976|Promoción y Difusión principios y valores cooperativismo.|Promoció i Difusió principis i valors cooperativisme.|2|C/ Aragó, 281 1r 1a|8009|Barcelona|Barcelonès|932154870|http://www.rocagales.cat|fundacio@rocagales.cat|Agnès Giner Camprubí|932154870|agnes@rocagales.cat|7|9||xs0148.jpg|G08449258|||
149|Associació Cultural Casa Orlandai|Casa Orlandai|2007|Gestión ciudadana.|Gestió ciutadana.|6|C/ Jaume Piquet, 23|8017|Barcelona|Barcelonès|932524262|http://www.casaorlandai.cat|info@casaorlandai.cat|Daniel Arrando|932524262|direccio@casaorlandai.cat|5|9||xs0149.jpg|G64509987|||
150|Confederació d'Associacions de Veïns de Catalu|CONFAVC|1988|Sociocomunitaria.|Sociocomunitària.|1|C/ Doctor Aiguader, 18 baixos|8003|Barcelona|Barcelonès|932688980|http://www.confavc.cat|veins@confavc.cat|Xavier Julve|932688980|ecosocial@confavc.cat|10|11||xs0150.jpg|G58964396|||
151|L'Esberla, SCCL|L'Esberla|2012|Ocio educativo y comunitario.|Lleure educatiu i comunitari.|20|C/ del Carme, 28 bis|8340|Vilassar de Mar|Maresme|937593402|http://www.esberla.cat|esberla@esberla.cat|Sergi Gallego Vila|649411734|sergi.gv@esberla.cat|1|5||xs0151.jpg|F65950149|||
152|Consell d'Associacions de Barcelona|CAB|2007|La plataforma interasociativa de la ciudad de Barcelona.|La plataforma interassociativa de la ciutat de Barcelona.|9|C/ Princesa, 6 principal 1a|8003|Barcelona|Barcelonès|932564087|http://www.cab.cat|associacions@cab.cat|Miquel Àngel Aragón|609226125|direccio@cab.cat|6|11||xs0152.jpg|G64629538|||
153|Associació Alba|Alba|1975|Organización para la innovación y la adaptación al cambio.|Organització per a la innovació i l'adaptació al canvi.|200|Avinguda Onze de Setembre, s/n|25300|Tàrrega|Urgell|973312221|http://www.aalba.cat|info@aalba.cat|Nuria Castella|973312221|ncastella@aalba.cat|5|11||xs0153.jpg|G25014077|||
154|Centre Autogestionari Solidaritat Area Llatina|CASAL|1990|Cooperación Internacional.|Cooperació Internacional.|0|C/ Vistalegre, 15 baixos|8001|Barcelona|Barcelonés|689114902|http://www.casalitos.org|casal@casalitos.org|Paco Hernandez|689114902|coordinacion@casalitos.org|9|10||xs0154.jpg|G59321463|||
155|Federació de Cooperatives de Treball de Catalunya|FCTC|1935|Representar, promover y conectar las cooperativas.|Representar, promoure i connectar les cooperatives.|8|C/ Premià, 15 planta 1a|8014|Barcelona|Barcelonès|933188162|http://www.cooperativestreball.coop|federacio@cooperativestreball.coop|Dolors Ferré Calvet|933188162|dolors@cooperativestreball.coop|10|4|5|xs0155.jpg|G62015789|||
156|Bonobo, SCCL|Bonobo|2013|Servicios del mundo de las TICs.|Serveis del món de les TICs.|3|C/ Papin, 8 local 2|8028|Barcelona|Barcelonès|932509158|http://bcommunity.es/|info@bcommunity.es|Pepe Castelltort|644470443|pepe@bcommunity.es|1|4|5|xs0156.jpg|F65906919|||
157|Espai Brotes, SCCL|Brotes|2013|Cafeteria de alimentación consciente y Terapias manuales.|Cafeteria d'alimentació conscient i Teràpies manuals.|4|C/ Bruc, 46|8901|Hospitalet de Llobregat|Barcelonès|931658383|http://www.espaibrotes.com|espaibrotes@gmail.com|Lua Albesa|610930735|laluasoc@gmail.com|1|3||xs0157.jpg|F66049404|||
158|Cal Roio Catllaràs, SCP|Cal Roio|2014|Ganaderia agroecológica.|Ramaderia agroecològica.|2|Casa El Reig, sn|8698|La Nou de Berguedà|Berguedà|647777076||calroiocatllaras@gmail.com|Martina Marcet Fuentes|647777976|calroiocatllaras@gmail.com|8|1||xs0158.jpg|J66223900|||
159|La Xarxa Verda de la Vall de Rafamans|Xarxa Verda|2012|Dinamización colectiva de producción agroecológica local.|Dinamització col·lectiva de producció agroecològica local.|3|C/ Anselm Clavé, 7|8757|Corbera de Llobregat|Baix Llobregat|654961257||bfuertesb@gmail.com|Ferran Aguiló García|654961257|ferran.aguilo.g@gmail.com|5|1|10|xs0159.jpg|G66146218|||
160|L'Aresta, SCCL|Aresta|2013|Producción de pan y productos de panadería agroecológica.|Producció de pa i productes de fleca agroecològica.|3|C/ Major, 19 baixos|43420|Santa Coloma de Queralt|Conca de Barberà|620829754|https://flecalaresta.wordpress.com/|flecalaresta@gmail.com|Gemma Flores Pons|620829754|flecalaresta@gmail.com|1|1|9|xs0160.jpg|F55610190|||
161|Acció Solidària Contra l'Atur|ASCA|1981|Conceder préstamos sin interés para crear puestos de trabajo|Concedir préstecs sense interés per crear llocs de treball.|4|Riera Sant Miquel, 1 bis 3r 2a|8173|Barcelona|Barcelonès|932170288|http://www.acciosolidaria.cat/|adm.accio@pangea.org|Oriol Romances Vidal|932170288|adm.accio@pangea.org|7|8|5|xs0161.jpg|G08995466|||
162|Frescoop, SCCL|frescoop|2007|Distribución alimentaria de productos frescos y restauración|Distribució alimentària de productes frescos i restauració.|15|C/ Llull, 27-39 2n 9a|8005|Barcelona|Barcelonès|933096281|http://www.frescoop.coop/|frescoop@gmail.com|Lluis Camós Gassó|635539015|lluis.gedi@gmail.com|1|3||xs0162.jpg|F64668742|||
163|Menjador Ca la Rosa, SCCL|Ca la Rosa|2015|Comedor ecológico infantil y para colectivos.|Menjador ecològic infantil i per a col·lectius.|4|C/ Mossen Juliana, 23|8027|Barcelona|Barcelonès|651425292|http://menjadorcalarosa.blogspot.com.es/|menjadorcalarosa@gmail.com|Rosa Batalla i Canut|651425292|menjadorcalarosa@gmail.com|1|11||xs0163.jpg|F66502881|||
164|Comunitaria, SCCL|Comunitaria|2015|Administración de fincas.|Administració de finques.|3|C/ Casp, 43 baixos 1a|8010|Barcelona|Barcelonès|931641790|http://www.comunitaria.cat|info@comunitaria.cat|Andrómeda Rodríguez Tendilla|675139294|andromeda@comunitaria.cat|1|2||xs0164.jpg|F66472978|||
165|Habitatges La Borda, SCCL|La Borda|2015|Cooperativa mixta viviendas en cesión de uso y consumidores.|Cooperativa mixta habitatges en cessió d'ús i consumidor|1|C/ Riego, 37 baixos 1|8014|Barcelona|Barcelonès|935518654|http://www.laborda.coop|info@laborda.coop|Hernan Córdoba Mendiola|935518654|coordinacio@laborda.coop|1|5|2|xs0165.jpg|F66379587|||
166|Okodia, SLU|Okodia|2013|Traducciones e interpretaciones.|Traduccions i interpretacions.|4|C/ Núria, 57|8191|Rubí|Vallès Occidental|931727830|http://www.okodia.com|luis@okodia.com|Luis Rodríguez|931727830|luis@okodia.com|8|11||xs0166.jpg|B65659963|||
167|Col·lectiu Punt 6, SCCL|Punt 6|2005|Arquitectura, urbanismo, participación comunitaria y género.|Arquitectura, urbanisme, participació comunitaria i gènere.|5|C/ Blanqueria, 9 local 2|8003|Barcelona|Barcelonès|933101655|http://www.punt6.org|colectivopunto6@gmail.com|Adriana Ciocoletto|690683101|colectivopunto6@gmail.com|1|5|9|xs0167.jpg|F66707514|||
168|Servei Civil Internacional de Catalunya|SCIC|1982|ONGD|ONGD|6|C/ Carme, 95 baixos|8001|Barcelona|Barcelonès|934417079|http://www.sci-cat.org/|outgoing@sci-cat.org|Marta Pérez|934417079|outgoing@sci-cat.org|5|10||xs0168.jpg|G08849549|||
169|SomBici, SCCL|SomBici|2014|Rutas guiadas en bicicleta y bici-escuela de adultos.|Rutes guiades en bicicleta i bici-escola d'adults.|3|C/ Eusebi Güell, 93 baixos 2a|8830|Sant Boi de Llobregat|Barcelonès|666584791|http://www.sombici.cat|sombici.cat@gmail.com|Tona Mangues|666584791|tonamangues@gmail.com|1|11||xs0169.jpg|F66395302|||
170|Associació ECOL3VNG|Turuta|2010|Poner en marcha un ecosistema económico y ecológico local.|Posar en marxa un ecosistema econòmic i ecològic local.|0|C/ Bonaire, 1|8800|Vilanova i la Geltrú|Garraf|656479655|http://www.turuta.cat|ecol3vng@gmail.com|Ton Dalmau|656479655|tondalmau@gmail.com|5|11||xs0170.jpg|G65628364|||
171|COMSOC - Comunicació Social|COMSOC|2008|La educomunicación con herramientas transformadoras.|L'educomunicació amb eines transformadores.|2|C/ Casp, 43 baixos 1a|8010|Barcelona|Barcelonès|717705867|http://comsoc.cat/ca/|info@comsoc.cat|Damià Caro i Pérez|652232378|damia@comsoc.cat|5|7|10|xs0171.jpg|G64971229|||
172|FemEscala, SCCL|FemEscala|2015|Administramos comunidades vecinales y alquileres.|Administrem comunitats veïnals i lloguers.|1|C/ Bailèn, 5 baixos|8010|Barcelona|Barcelonès|681608195|http://www.femescala.coop/|info@femescala.coop|Ruth Arbués Lamaña|681608195|ruth@femescala.coop|1|5|4|xs0172.jpg|F66575432|||
173|Jamgo, SCCL|Jamgo|2011|Nuestro objectivo es ayudar a crecer a nuestros clientes.|El nostre objectiu és ajudar a créixer als nostres clients.|9|C/ Doctor Trueta, 183 6e 2a|8005|Barcelona|Barcelonès|935995657|http://www.jamgo.coop|info@jamgo.es|Aritz Samaniego|635733853|aritz.samaniego@jamgo.es|1|4||xs0173.jpg|F65533259|||
174|Eticom - Somos Conexión, SCCL|Eticom|2014|Servicios de telefonía y Conexión internet.|Serveis de telefonia i Connexió internet.|2|Riu Llobregat, 47 baixos|8820|El Prat del Llobregat|Baix Llobregat|931311728|https://www.eticom.coop|info@eticom.coop|Mercè Botella Mas|693761723|merce.botella@eticom.coop|2|7||xs0174.jpg|F66380676|||
175|Associació pel Consum Responsable i Sostenibilitat|ACRS Terrassa|2002|Cooperativa de Consumo.|Cooperativa de Consum.|0|C/ Sant Gaietà, 73|8221|Terrassa|Vallès Occidental|649765418|https://lacoopecandela.wordpress.com/|coopecandela@gmail.com|Joan Pi Gonzàlez|649765418|joanpigonz@gmail.com|2|11||xs0175.jpg|G65532418|||
176|Bestieses Editorial|Escuracassoles|2015|Impulsar y elaborar los materiales Escuracassoles.|Impulsar i elaborar els materials Escuracassoles.|0|Masia Can Sala de Baix|8758|Cervelló|Baix Llobregat|610985001|http://www.escuracassoles.cat|hola@escuracassoles.cat|Mireia Ribas Monfort|610985001|mireiaribas@gmail.com|8|9||xs0176.jpg|46769718T|||
177|Laboqueria Taller d'Arquitectura Barcelona, SC|laboqueria Taller|2012|Taller de Arquitectura, Diseño e Ingeniería.|Taller d'Arquitectura, Disseny i Enginyeria.|4|C/ Petxina, 4 1r 1a|8001|Barcelona|Barcelonès|933180274|http://www.laboqueria.net|info@laboqueria.net|Ricard Grau Pujol|605645822|info@laboqueria.net|1|2||xs0177.jpg|F66633967|||
178|Fundació Periodisme Plural|Periodisme Plural|2013|Edición de medios digitales.|Edició de mitjans digitals.|3|Avda Josep Terradelles, 13 entresol 2a|8029|Barcelona|Barcelonès|628734939|http://www.fundacioperiodismeplural.cat|jfranca@catalunyaplural.cat|Joao França|628734939|jfranca@catalunyaplural.cat|7|7||xs0178.jpg|G65978348|||
179|Conreu Sereny, SCCL|Conreu Sereny|2010|Producción agraria y Formación.|Producció agraria i Formació.|3|C/ Museu, 31|8912|Badalona|Barcelonès|610362848|http://www.conreusereny.cat/|conreusereny@gmail.com|Xavier Montes de Oca Navarro|610362848|xmontesdeoca@gmail.com|1|1|5|xs0179.jpg|40277539P|||
180|Pol·len edicions, SCCL|Pol·len|2014|Edición de libros, ecoedición y pensamiento crítico.|Edició de llibres, ecoedició i pensament crític.|1|C/ Junta de Comerç, 20|8001|Barcelona|Barcelonès|931596399|http://www.pol-len.cat/|info@pol-len.cat|Mar Carrera|931596399|mar@pol-len.cat|1|9|7|xs0180.jpg|F66231440|||
181|La Page Original, SL|La Page|1991|Diseño gráfico y Comunicación visual.|Disseny gràfic i Comunicació visual.|3|C/ Santa Anna, 16|8911|Badalona|Barcelonès|933894759|http://www.lapageoriginal.com/|josep@lapageoriginal.com|Josep Martínez Ruzafa|933894759|josep@lapageoriginal.com|9|7||xs0181.jpg|B61119681|||
182|Associació de difusió de consum crític|La Sardineta|2010|Grupo de ecoconsumo.|Grup d&#39ecoconsum.|0|C/ Cermeño, 7 baixos|8003|Barcelona|Barcelonès|616184105|https://lasardinetadelabarceloneta.wordpress.com/|gruplasardineta@gmail.com|Laia Fargas Fursa|639567006|gruplasardineta@gmail.com|5|11||xs0182.jpg|G66178823|||
183|Institut de Govern i Polítiques Públiques|IGOP-UAB|2005|Investigación y Formación|Recerca i Formació.|25|Campus de la UAB -  Mòdul de Recerca A (MRA), 1a planta|8193|Cerdanyola del Vallès|Barcelonès|935868814|http://igop.uab.cat|igop@uab.cat|Institut de Govern i Polítiques Públiques|935868814|igop@uab.cat|9|11||xs0183.jpg|Q0818002H|||
184|Alterevents|Alterevents|2015|Eventos desde la economía transformadora.|Esdeveniments des de l'economia transformadora.|0|C/ Àngel Guimerà, 29|8100|Mollet del Vallès|Vallès Oriental|680226828|http://www.alterevents.cat/|alterevents@alterevents.cat|Maria Ros|680226828|maria@alterevents.cat|5|4|11|xs0184.jpg|G66565755|||
185|Fundació Blue Terabyte|Blue Terabyte|2012|Inserción juvenil mediante el reciclaje y reutilización.|Inserció juvenil mitjançant el reciclatge i reutilització.|5|C/ Rosello, 5 (Polígon Brugera)|8211|Castellar del Vallés|Vallés Occidental|902876218|http://www.blueterabyte.es/|info@blueterabyte.es|Lourdes Garcia|639838621|info@blueterabyte.es|7|11||xs0185.jpg|G86377512|||
186|Associació Ecoserveis|Ecoserveis|1992|Cultura energética.|Cultura energètica.|8|C/ Diputació, 251 5è|8007|Barcelona|Barcelonés|934590022|http://www.ecoserveis.net/|comunicacio@ecoserveis.net|Oriol Giménez Agulló|934590022|comunicacio@ecoserveis.net|5|5|6|xs0186.jpg|G60037348|||
187|Facto Assessors, SCCL|Facto|2016|Asesoramiento contable, fiscal y laboral en economía social.|Assessorament comptable, fiscal i laboral en economia social|2|C/ Casp, 43 baixos|8010|Barcelona|Barcelonès|679807725|http://facto.cat/ca/Home/|info@facto.cat|Oriol Martín Àlvarez|679807725|omartin@facto.cat|1|4||xs0187.jpg|F66633389|||
188|La Canibal, SCCL|La Canibal|2013|Librería.|Llibreria.|3|C/ Nàpols, 314|8025|Barcelona|Barcelonès|930087605|http://www.lacanibal.net/|info@lacanibal.net|Amanda Cuesta Hernández|930087605|info@lacanibal.net|1|3|9|xs0188.jpg|F66133679|||
189|Malarrassa|Malarrassa|2014|Comunicación e información.|Comunicació i informació.|2|C/ Sant Valentí, 49|8221|Terrassa|Vallès Occidental|696348030|http://www.malarrassa.cat/|info@malarrassa.cat|Pep Valenzuela Pérez|696348030|info@malarrassa.cat|5|7|9|xs0189.jpg|G66415894|||
190|Metromuster, SCCL|Metromuster|2015|Producción audiovisual y Comunicación integral.|Producció audiovisual i Comunicació integral.|5|C/ Profeta, 7 baixos|8012|Barcelona|Barcelonès|930174322|http://www.metromuster.cat/|contacte@metromuster.cc|Salvador Rodríguez Nicolau|625814139|salva@metromuster.cc|1|7||xs0190.jpg|F66578832|||
191|Associació Panorama 180|Panorama 180|2010|Cultura libre audiovisual.|Cultura lliure audiovisual.|0|C/ Rabassa, 44 baixos|8024|Barcelona|Barcelonès|626937578|http://www.panorama180.org/|info@panorama180.org|Fernando Paniagua de Paz|626937578|fernando@bccn.cc|5|11||xs0191.jpg|G65338154|||
192|SUNO Enginyeria de Serveis Energètics, SCCLP|SUNO|2015|Ingeniería de energías renovables y gestión energética.|Enginyeria d'energies renovables i gestió energètica.|3|C/ Muralla, 9 1-1a|17600|Girona|Alt Empordà|630624212|http://www.suno.cat/|info@suno.cat|Xevi Planas i Puigbert|675534502|xevi@suno.cat|1|4|11|xs0192.jpg|F55246516|||
193|ORDI NATURA, SL|ORDI|2015|Caramelización de semillas alimentarias.|Caramelització de llavors alimentarias.|8|Passeig de Santa Coloma, 2|8030|Barcelona|Barcelonès|607265297|http://www.ordinatura.cat/|naturordi@gmail.com|Juan Manuel Reche|607265297|naturordi@gmail.com|9|1|3|xs0193.jpg|B66560723|||
194|RiceUp, SCCL|RiceUp|2015|Estudio de diseño, programación e interiorismo.|Estudi de disseny, programació i interiorisme.|2|C/ Soleia, 3|8328|Alella|Maresme|636295601|http://www.riceupstudio.com/|bcn@riceupstudio.com|Carlos Navarro|658086370|carlos@riceupstudio.com|1|4||xs0194.jpg|F66626177|||
195|L'Arada, Creativitat Social SCCL|L'Arada|2014|Planificamos y actuamos en territorios rurales y barrios.|Planifiquem i actuem en territoris rurals i barris.|6|Cal Palà, s/n|8281|Prades de La Molsosa|Solsonès|938729709||info@larada.coop|Ramon Fornell i Alsina|938729709|ramon.fornell@larada.coop|1|9|5|xs0195.jpg|F25628579|||
196|Dies d'agost, SCCL|Dies d'agost|2016|Servicios de comunicación.|Serveis de comunicació.|2|Espai VIT - C/ Llotja, s/n - Recinte firal El Sucre|8500|Vic|Osona|699180546|http://diesdagost.cat/|info@diesdagost.cat|Josep Comajoan Colomé|699180546|josep@diesdagost.cat|1|7||xs0196.jpg|F66694100|||
197|Fundacio Ítaca|Ítaca|1998|Plataforma plural, reflexiva y multilingüe.|Plataforma plural, reflexiva i multilingüe.|0|C/ Sardenya, 29|8005|Barcelona|Barcelonès|638167821|http://www.fundacioitaca.cat/|info@fundacioitaca.cat|Juli Carbó|638167821|president@fundacioitaca.cat|7|7||xs0197.jpg|G61813200|||
198|La Pell de la Ciutat, SCCL|La Pell|2015|Espacio público, participación, infancia.|Espai públic, participació, infància.|3|Fàbrica de creació Fabra i Coats (Sant Andreu)|8030|Barcelona|Barcelonès|680340427|http://www.lapelldelaciutat.org/|info@lapelldelaciutat.org|Ross Pérez Aiyer|680340427|rosspaiyer@gmail.com|1|11||xs0198.jpg|F66674672|||
199|Ninkasi, SCCL|Ninkasi|2016|Elaboración ecológica y autóctona de cerveza, mosto y malta.|Elaboració ecològica i autòctona de cerveses, most i maltes.|2|Cal Biel, 17 C (Bosque de Cal Pons)|8692|Puig-reig|El Berguedà|636242816|http://www.ninkasi.cat/|cervesa@ninkasi.cat|Imma Collado|636242816|immacollado@gmail.com|1|2|1|xs0199.jpg|F66822578|||
200|Associació Pangea|Pangea|1993|Servicios de Internet para entidades y personas.|Serveis d'Internet per a entitats i persones.|4|Plaça Eusebi Güell, 6-7 (Edifici Vèrtex, plata 0)|8034|Barcelona|Barcelonès|934015664|http://www.pangea.org/|admin@pangea.org|Lorena Merino|934015664|admin@pangea.org|6|11||xs0200.jpg|G60437761|||
201|La Clara Comunicació|La Clara|2015|Agencia de comunicación.|Agència de comunicació.|3|C/ Albigesos, 9 pral 2a|8024|Barcelona|Barcelonès|930090653|https://laclaracomunicacio.com/|marta@laclaracomunicacio.com|Marta Molas Romera|930090653|marta@laclaracomunicacio.com|8|4||xs0201.jpg|47101524P|||
202|Ateneu La Bòbila de Porta|Transforma Porta|2015|Espacio de gestión comunitaria en el barrio de Porta.|Espai de gestió comunitaria al barri de Porta.|2|C/ de l'Estudiant, 1 baixos|8016|Barcelona|Barcelonès|933540570|http://www.ateneulabobiladeporta.wordpress.com|ateneulabobila@gmail.com|Adolfo Sanchez Sanmartin|610887271|ateneulabobila@gmail.com|10|9||xs0202.jpg|G66431131|||
203|Fundació Quepo|Quepo|2007|Comunicación audiovisual para la transformación social.|Comunicació audiovisual per a la transformació social.|4|C/ Llibertat, 47 baixos|8012|Barcelona|Barcelonès|931867511||info@quepo.org|Raquel Bonell|680407221|raquel@quepo.org|7|7|10|xs0203.jpg|G64564057|||
204|B-Polemic, Associació|B-Polemic|2014|Danza con impacto social.|Dansa amb impacte social.|1|C/ Aribau, 230-240 5ºA|8007|Barcelona|Barcelonès|605312229||bpolemicbcn@gmail.com|Gemma Martí Cucurella|605312229|laminimarti@gmail.com|5|5||xs0204.jpg|G66328709|||
205|Promoètic, SCCL|Promoètic|2015|Merchandising ecológico y de comercio justo.|Marxandatge ecològic i de comerç just.|2|C/ Bailèn, 5 baixos|8010|Barcelona|Barcelonès|676046843|https://promoetic.coop/|info@promoetic.coop|Oriol Corbella Cervelló|676046843|oriol.corbella@gmail.com|1|7||xs0205.jpg|46996439X|||
206|Xarxa Consum Solidari|XCS|1997|Soberanía alimentaria basada en comercialización y consumo.|Sobirania alimentaria bassant en comercialització i consum.|6|Plaça Agustí Vell, 15|8001|Barcelona|Barcelonès|932682202|http://www.xarxaconsum.org|comercial@xarxaconsum.org|Xavier Montagut Guix|932682202|xavimonta@gmail.com|5|11||xs0206.jpg|G61749297|||
207|El Risell, SCCL|Risell|2012|Consultoría multidisciplinar.|Consultoria multidisciplinar.|3|C/ Indústria, 3 7é|8037|Barcelona|Barcelonès|633392612|http://elrisell.cat/|info@elrisell.cat|Andreu Camprubí Trepat|633392612|andreu@elrisell.cat|1|6|9|xs0207.jpg|F25745795|||
208|El Timbal, centre de formació i creació escènica|El Timbal|2010|Más de 46 años en la formación teatral y audiovisual.|Mes de 46 anys en la formació teatral i audiovisual.|20|C/ Roger de Flor, 85|8013|Barcelona|Barcelonès|933027347|http://www.eltimbal.org/|escola@eltimbal.org|Mireia Font|620107582|mireia.font@eltimbal.org|1|9|5|xs0208.jpg|F65378655|||
209|Nisata, SCCL|L'Illa Emergent|2014|Actividades culturales, artísticas y coaching.|Activitats culturals, artístiques i coaching.|3|C/ Secretari Coloma, 84 baixos|8024|Barcelona|Barcelonès|676886747|http://www.illaemergent.org/|mireiapiferrer@gmail.com|Mireia Piferrer|676886747|mireiapiferrer@gmail.com|3|9||xs0209.jpg|F66383985|||
210|Cervesa Capfoguer, SCCL|Capfoguer|2015|Producción de cerveza artesana y Restauración.|Producció de cervesa artesana i Restauració.|6|Avinguda Santa Coloma, 104|8922|Santa Coloma de Gramenet|Barcelonès|935662566|http://www.capfoguer.cat/|capfoguer@gmail.com|Jordi Pastor Pérez|617427786|jordipastor6@gmail.com|1|11||xs0210.jpg|F66497801|||
211|La Dinamo, Fundació Privada|La Dinamo|2016|Fomento del cooperativismo de vivienda en régimen de cesión.|Foment de cooperativisme d'habitatge en règim de cessió.|2|C/ Premià, 15 baixos|8014|Barcelona|Barcelonès|935518654||hernan@ladinamofundacio.org|Hernan Córdoba|935518654|hernan@ladinamofundacio.org|7|4|5|xs0211.jpg|G66823659|||
212|Federació d'entitats de Sant Andreu de Palomar|L'Harmonia|2007|Gestión comunitaria de equipamiento sociocultural.|Gestió comunitària d'equipament sociocultural.|5|C/ Sant Adrià, 20 (Recinte Fabra i Coats)|8030|Barcelona|Barcelonès|932566085|http://www.ateneuharmonia.cat/|ateneuharmonia@gmail.com|Albert Batlles Fossas|932566085|ateneuharmonia@gmail.com|6|9||xs0212.jpg|G64770845|||
213|Associació d'aturats de Torredembarra|Busquem Feina|2015|Buscar fórmulas cooperativas para luchar contra el paro.|Buscar formules cooperatives per lluitar contra el atur.|0|Camí dels Munts, 17 baixos porta 3|43830|Torredembarra|Tarragonés|662088119||assoc.aturatstdb@gmail.com|Montse Ferres|662088119|assoc.aturatstdb@gmail.com|5|4|5|xs0213.jpg|G55673206|||
214|Col·lectiu d'aturats del Baix Penedès|Aturats Baix Penedès|2013|Lucha en red contra el paro, Formación y Autoempleo.|Lluita en xarxa contra l'atur, Formació i Auto-ocupació.|0|Cami Reial, 13-17 1ª planta|43700|El Vendrell|Baix Penedès|656487758|http://aturatsbaixpenedes.wixsite.com/aturatsbaixpenedes|caabp@outlook.es|Francesc Piñol Soldrá|656487758|caabp@outlook.es|5|9|5|xs0214.jpg|G55624811|||
215|Cúrcuma, acció i creació amb perspectiva de gènere|Cúrcuma|2013|Coeducación, Violencias de género y Facilitación de grupos.|Coeducació, Violències de gènere i Facilitació de grups.|4|C/ Hortes, 10|8004|Barcelona|Barcelonès|670587032|https://asscurcuma.wordpress.com/|ass.curcuma@gmail.com|Inma Pascual Sanchez|670587032|ass.curcuma@gmail.com|5|9||xs0215.jpg|G66001512|||
216|Olistis, SCCL|Olistis|2016|Traducción, Interpretación y otros servicios lingüísticos.|Traducció, Interpretació i altres serveis lingüístics.|2|C/ Bonaventura Pollés, 23-25 baixos|8014|Barcelona|Barcelonès|677286109|http://olistis.org/|contact@olistis.org|Leo Carbó|677286109|leo.carbo@olistis.org|1|4|7|xs0216.jpg|F66668385|||
217|Empresa d'Inserció SaóPrat, SL|SaóPrat|2007|Agencia de comunicación y Reformas de edificios.|Agencia de comunicació i Reformes d'edificis.|18|Avda Canal, 110|8820|El Prat de Llobregat|Baix Llobregat|670576410|http://www.saoprat.net/|mc.olaya@maristes.com|M. Carmen Olaya|670576410|mc.olaya@maristes.com|9|4|7|xs0217.jpg|B64482151|||
218|Alencop, SCCL|Alencop|2015|Recogida de chatarra. Reciclaje. Sensibilización.|Recollida de ferralla. Reciclatge. Sensibilització.|28|C/ Santander, 42-48 local 34|8020|Barcelona|Barcelonès|936119201|http://alencop.coop/|info@alencop.coop|Muntsa Busquets|648037472|comunicacio@alencop.coop|1|6||xs0218.jpg|F66558263|||
219|Comuco, SCCL|Comuco|2016|Comunicación y otros servicios a las empresas.|Comunicació i altres serveis a les empreses.|9|C/ Marina, 164 4rt 3a|8013|Barcelona|Barcelonès|625570838||mmorenobe@gmail.com|Mercè Moreno Bertran|625570838|mmorenobe@gmail.com|3|7|4|xs0219.jpg|F66863507|||
220|FGC Advocats, SCCL|FGC Advocats|2006|Ejercicio de la Abogacía.|Exercici de l'Advocacia.|5|Via Laietana, 59 3r 1a|8003|Barcelona|Barcelonès|933172521||adm@fgcadvocats.com|Cristina Rosa Grau López|619322398|cgrau@fgcadvocats.com|1|4|5|xs0220.jpg|F64077274|||
221|Cohousing Barcelona, SCCL|Cohousing|2016|Promoción covivienda.|Promoció cohabitatge.|0|Plaça Tetuan, 40 1r desp 15|8010|Barcelona|Barcelonès|638167821|http://www.cohousingbarcelona.cat/|cohabitatge@cohabitatgebarcelona.cat|Juli Carbó|638167821|president@fundacioitaca.cat|1|5||xs0221.jpg|F66860560|||
222|Associació Tata Inti|Tata Inti|2014|Promoción de la educación libre y el ocio en familia.|Promoció de l'educació lliure i el lleure en família.|4|C/ Blanco, 38 baixos|8028|Barcelona|Barcelonès|661727190|http://tatainti.org/|tatainti@tatainti.org|Mercè Aranda|661727190|espaitatainti@gmail.com|5|5||xs0222.jpg|G66310343|||
223|Gabinet d'Estudis Socials, SCCL|GES|1987|Investigación y evaluación social.|Recerca i avaluació social.|3|C/ Aragó, 281 2n 2a|8009|Barcelona|Barcelonès|934873816|http://www.gabinet.com/|ges@gabinet.com|Xavier Vallvé i Duaigües|609962035|xavier@gabinet.com|1|4||xs0223.jpg|F58398496|||
